STORE ID,NXT Warehouse
ASSIGNEE NAME,Ashok
ASSIGNEE CONTACT NO,
RUNSHEET NUMBER,RUN000821

COD,CUSTOMER NAME,CUSTOMER ADDRESS,CONTACT NO,TRACKING ID,SHIPMENT TYPE,RETAILER ID,
0.0,Ujwala,e1302 mantri espana outer ring road: devarbisanahalli,9740519680,D00100000008852,Delivery,retailer1,
0.0,Rahamath,235:Bhavya Pristine Apartments:A Block:Flat No G6Boganahalli:Pannathur Kannahalli Road,7760999353,D00100000008865,Delivery,retailer1,
