STORE ID,NXT Warehouse
ASSIGNEE NAME,Aeris
ASSIGNEE CONTACT NO,
RUNSHEET NUMBER,IX5NLI0KXK

COD,CUSTOMER NAME,CUSTOMER ADDRESS,CONTACT NO,TRACKING ID,SHIPMENT TYPE,RETAILER ID,
1525.0,Rajani,Sagar hospital DSI:shaving malleshwara hills Kumarswamy layout,9980677001,D00100000020006,Collect,retailer1,
