STORE ID,NXT Warehouse
ASSIGNEE NAME,Aeris
ASSIGNEE CONTACT NO,
RUNSHEET NUMBER,L6FDRKA60A

COD,CUSTOMER NAME,CUSTOMER ADDRESS,CONTACT NO,TRACKING ID,SHIPMENT TYPE,RETAILER ID,
488.0,divya,l149:lakshmi pg:7th cross teachers colony kslayout,7676596420,D00100000020774,Collect,retailer1,
