STORE ID,NXT Warehouse
ASSIGNEE NAME,Aeris
ASSIGNEE CONTACT NO,
RUNSHEET NUMBER,GX0EEKM491

COD,CUSTOMER NAME,CUSTOMER ADDRESS,CONTACT NO,TRACKING ID,SHIPMENT TYPE,RETAILER ID,
1200.0,dr nagamani,Door no 314:5th main:11th cross:isro layout,8971245256,D00100000020446,Collect,retailer1,
