STORE ID,NXT Warehouse
ASSIGNEE NAME,Aeris
ASSIGNEE CONTACT NO,
RUNSHEET NUMBER,29G758O7EE

COD,CUSTOMER NAME,CUSTOMER ADDRESS,CONTACT NO,TRACKING ID,SHIPMENT TYPE,RETAILER ID,
338.0,Arun,383:1st Floor:6th Main ISRO Layout,9986258187,D00100000021815,Collect,retailer1,
