STORE ID,NXT Warehouse
ASSIGNEE NAME,Aeris
ASSIGNEE CONTACT NO,
RUNSHEET NUMBER,B1NGK1O9RA

COD,CUSTOMER NAME,CUSTOMER ADDRESS,CONTACT NO,TRACKING ID,SHIPMENT TYPE,RETAILER ID,
1360.0,Kritika,S-6:Nanda Residency:1st main:prashanthi nagar extn. ISRO Layout,9986829606,D00100000013759,Collect,retailer1,
