STORE ID,NXT Warehouse
ASSIGNEE NAME,Apple Blossoms
ASSIGNEE CONTACT NO,
RUNSHEET NUMBER,LMOGEA750L

COD,CUSTOMER NAME,CUSTOMER ADDRESS,CONTACT NO,TRACKING ID,SHIPMENT TYPE,RETAILER ID,
1463.0,Akanksha,hostel block 1:baroda manipal school of banking manipal county 65: singhasandra: hosur road,8285440048,D00100000020046,Collect,retailer1,
