STORE ID,NXT Warehouse
ASSIGNEE NAME,Apple Blossoms
ASSIGNEE CONTACT NO,
RUNSHEET NUMBER,91N9RONG9X

COD,CUSTOMER NAME,CUSTOMER ADDRESS,CONTACT NO,TRACKING ID,SHIPMENT TYPE,RETAILER ID,
0.0,Srimoyee,205 Block A Sumadhura Anantham Apt Manipal County Road Singasandra Off Hosur Road,9535001077,D00100000009560,Collect,retailer1,
