STORE ID,NXT Warehouse
ASSIGNEE NAME,Apple Blossoms
ASSIGNEE CONTACT NO,
RUNSHEET NUMBER,BB9FK17X28

COD,CUSTOMER NAME,CUSTOMER ADDRESS,CONTACT NO,TRACKING ID,SHIPMENT TYPE,RETAILER ID,
764.0,Rohini,G.R.SHREENIVAS APPT:FL.NO.306:MANIPAL COUNTY ROAD:SINGASANDRA.,9986944163,D00100000014324,Collect,retailer1,
