STORE ID,NXT Warehouse
ASSIGNEE NAME,Bangalore Horticulture
ASSIGNEE CONTACT NO,
RUNSHEET NUMBER,XF585KD154

COD,CUSTOMER NAME,CUSTOMER ADDRESS,CONTACT NO,TRACKING ID,SHIPMENT TYPE,RETAILER ID,
259.0,vandana,n 903 rajlake view apartment 29 th main btm 2 nd stage,9035422435,D00100000020639,Collect,retailer1,
