STORE ID,NXT Warehouse
ASSIGNEE NAME,Bangalore Horticulture
ASSIGNEE CONTACT NO,
RUNSHEET NUMBER,G6OLANGXXB

COD,CUSTOMER NAME,CUSTOMER ADDRESS,CONTACT NO,TRACKING ID,SHIPMENT TYPE,RETAILER ID,
2135.0,Ashutosh,321-A:Ranka Colony:Bilekahalli Bannerghatta Road,9742290915,D00100000021403,Collect,retailer1,
