STORE ID,NXT Warehouse
ASSIGNEE NAME,Bangalore Horticulture
ASSIGNEE CONTACT NO,
RUNSHEET NUMBER,K60X48477A

COD,CUSTOMER NAME,CUSTOMER ADDRESS,CONTACT NO,TRACKING ID,SHIPMENT TYPE,RETAILER ID,
0.0,Vanya,B-201:Aahika Apartment:Ranka Colony Main Road Bilekahalli: off Bannerghatta road,9731540741,D001015452,Collect,retailer1,
0.0,Archisman,B018:Surabhi Apartment:Ranka Colony Road Bilekahalli: Bannerghatta Road,9900253604,D001015462,Collect,retailer1,
