STORE ID,NXT Warehouse
ASSIGNEE NAME,Beauty world salon and spa 2
ASSIGNEE CONTACT NO,
RUNSHEET NUMBER,RXN5GFXBXI

COD,CUSTOMER NAME,CUSTOMER ADDRESS,CONTACT NO,TRACKING ID,SHIPMENT TYPE,RETAILER ID,
0.0,Ganga,Gate6 Infosys limited Electronic City,9743114851,D00100000015472,Collect,retailer1,
0.0,Sowmya,flat no. -S12:block A:Prabhavathi Meridian::near Lakshmi Narasimha temple:doddathoguru:electr,9986254095,D00100000015555,Collect,retailer1,
0.0,Shazeb Khan,Flat 305: Mayura E-City Apartment: Opposite Four Point Store: Doddathogur: Electronic City Prime City Apartment: in lane opposite to Velankani Tech Park:Bangalore Karnataka,8791372648,D00200000006104,Collect,retailer1,
