STORE ID,NXT Warehouse
ASSIGNEE NAME,Beauty World Salon & Spa
ASSIGNEE CONTACT NO,
RUNSHEET NUMBER,6FG2055E1A

COD,CUSTOMER NAME,CUSTOMER ADDRESS,CONTACT NO,TRACKING ID,SHIPMENT TYPE,RETAILER ID,
0.0,Ritu,E-504:Concorde Manhattans:Electronic City:Phase 1,9036016433,D00100000015990,Collect,retailer1,
