STORE ID,NXT Warehouse
ASSIGNEE NAME,Beauty World Salon & Spa
ASSIGNEE CONTACT NO,
RUNSHEET NUMBER,N60DOIF55M

COD,CUSTOMER NAME,CUSTOMER ADDRESS,CONTACT NO,TRACKING ID,SHIPMENT TYPE,RETAILER ID,
0.0,anamika,c-1201:ajmera infinity:neeladri nagarelectronic city phase 1,9663725446,D00100000015911,Collect,retailer1,
