STORE ID,NXT Warehouse
ASSIGNEE NAME,Beauty World Salon & Spa
ASSIGNEE CONTACT NO,
RUNSHEET NUMBER,9O9I87M5LE

COD,CUSTOMER NAME,CUSTOMER ADDRESS,CONTACT NO,TRACKING ID,SHIPMENT TYPE,RETAILER ID,
1595.0,Ramya,No 203:Celebrity Classic Doddathogur:Electronic city,9035342088,D00100000022618,Collect,retailer1,
