STORE ID,NXT Warehouse
ASSIGNEE NAME,Beauty world salon and spa 2
ASSIGNEE CONTACT NO,
RUNSHEET NUMBER,R2X2E8I2L2

COD,CUSTOMER NAME,CUSTOMER ADDRESS,CONTACT NO,TRACKING ID,SHIPMENT TYPE,RETAILER ID,
351.0,Arun,Emp192212:Infosys LimitedElectronic City,9620351642,D00100000022734,Collect,retailer1,
