STORE ID,NXT Warehouse
ASSIGNEE NAME,Beauty World Salon & Spa
ASSIGNEE CONTACT NO,
RUNSHEET NUMBER,E0MLBN7LG8

COD,CUSTOMER NAME,CUSTOMER ADDRESS,CONTACT NO,TRACKING ID,SHIPMENT TYPE,RETAILER ID,
534.0,Rashi,B 202 ajmera infinity opp village hypermarket neeladri road near whipro gate electronic city,9845793648,D00100000022201,Collect,retailer1,
