STORE ID,NXT Warehouse
ASSIGNEE NAME,Beauty World Salon & Spa
ASSIGNEE CONTACT NO,
RUNSHEET NUMBER,FO5D5IDDLR

COD,CUSTOMER NAME,CUSTOMER ADDRESS,CONTACT NO,TRACKING ID,SHIPMENT TYPE,RETAILER ID,
437.0,Meenal,6th cross building no. 591 neeladri nagar Electronic city phase 1,9886672223,D00100000021875,Collect,retailer1,
