STORE ID,NXT Warehouse
ASSIGNEE NAME,Beauty World Salon & Spa
ASSIGNEE CONTACT NO,
RUNSHEET NUMBER,2BN565BO5I

COD,CUSTOMER NAME,CUSTOMER ADDRESS,CONTACT NO,TRACKING ID,SHIPMENT TYPE,RETAILER ID,
0.0,Anuj,Flat C-019:Prime City:Doddathogur Electronic City Phase 1:Electronic City,9840667391,D00100000008771,Collect,retailer1,
