STORE ID,NXT Warehouse
ASSIGNEE NAME,Beauty World Salon & Spa
ASSIGNEE CONTACT NO,
RUNSHEET NUMBER,5F2FXNDK5G

COD,CUSTOMER NAME,CUSTOMER ADDRESS,CONTACT NO,TRACKING ID,SHIPMENT TYPE,RETAILER ID,
1250.0,Poulami,Uniworld Apartments Neeladri Road: Electronic City Phase 1,9731281177,D00100000021393,Collect,retailer1,
