STORE ID,NXT Warehouse
ASSIGNEE NAME,Beauty World Salon & Spa
ASSIGNEE CONTACT NO,
RUNSHEET NUMBER,IAF18X2576

COD,CUSTOMER NAME,CUSTOMER ADDRESS,CONTACT NO,TRACKING ID,SHIPMENT TYPE,RETAILER ID,
0.0,Swati,Ajmera Infinity:J-303:Neeladri layout:Electroni city Phase-1,9880399669,D00100000015291,Collect,retailer1,
