STORE ID,NXT Warehouse
ASSIGNEE NAME,Beauty World Salon & Spa
ASSIGNEE CONTACT NO,
RUNSHEET NUMBER,O697K45A50

COD,CUSTOMER NAME,CUSTOMER ADDRESS,CONTACT NO,TRACKING ID,SHIPMENT TYPE,RETAILER ID,
0.0,neha,D 501 Concorde Manhattans Neeladri Nagar:electronic city phase 1,9538788099,D00100000015770,Collect,retailer1,
