STORE ID,NXT Warehouse
ASSIGNEE NAME,Bhoomika BeautyParlour
ASSIGNEE CONTACT NO,
RUNSHEET NUMBER,L742I95XB1

COD,CUSTOMER NAME,CUSTOMER ADDRESS,CONTACT NO,TRACKING ID,SHIPMENT TYPE,RETAILER ID,
1210.0,SANDHYA,1154:2:bembala:2nd floor:nanjappa layout:arekere:Bannerghatta road,9845470261,D00100000021081,Collect,retailer1,
