STORE ID,NXT Warehouse
ASSIGNEE NAME,Bhoomika BeautyParlour
ASSIGNEE CONTACT NO,
RUNSHEET NUMBER,4LMM92AI6R

COD,CUSTOMER NAME,CUSTOMER ADDRESS,CONTACT NO,TRACKING ID,SHIPMENT TYPE,RETAILER ID,
0.0,Shilpa,No.18:1st A main Road Samrat Layout: Arekere: Bannergatta Road,9880789976,D00100000015429,Collect,retailer1,
