STORE ID,NXT Warehouse
ASSIGNEE NAME,Bhoomika BeautyParlour
ASSIGNEE CONTACT NO,
RUNSHEET NUMBER,X6K60GD8L2

COD,CUSTOMER NAME,CUSTOMER ADDRESS,CONTACT NO,TRACKING ID,SHIPMENT TYPE,RETAILER ID,
1598.0,Nidaa Firdous     ,No216: Rose Mansion: 1st floor: 7th cross: Lakshmi Layout: Arekere: Bannergatta main road   :Bangalore Karnataka,9986666684,D00200000000836,Collect,retailer1,
