STORE ID,NXT Warehouse
ASSIGNEE NAME,Bhoomika BeautyParlour
ASSIGNEE CONTACT NO,
RUNSHEET NUMBER,7MX910KG5O

COD,CUSTOMER NAME,CUSTOMER ADDRESS,CONTACT NO,TRACKING ID,SHIPMENT TYPE,RETAILER ID,
0.0,Rajendra,B 102:Mantri Paradise:Arekere Gate Bannerghatta Road,9845206210,D00100000016798,Collect,retailer1,
