STORE ID,NXT Warehouse
ASSIGNEE NAME,BTM Pod
ASSIGNEE CONTACT NO,
RUNSHEET NUMBER,KXOKK01I90

COD,CUSTOMER NAME,CUSTOMER ADDRESS,CONTACT NO,TRACKING ID,SHIPMENT TYPE,RETAILER ID,
0.0,Namita,22 Mythri palace:flat no.205:4th main:20th cross:NS palya:BTM 2nd stage,9916159680,D00100000016098,Collect,retailer1,
0.0,supreet,146:lane no 21:6th cross 2nd stage:BTM layout,8951156002,D00100000016194,Collect,retailer1,
