STORE ID,NXT Warehouse
ASSIGNEE NAME,BTM Pod
ASSIGNEE CONTACT NO,
RUNSHEET NUMBER,INO1G0O8EL

COD,CUSTOMER NAME,CUSTOMER ADDRESS,CONTACT NO,TRACKING ID,SHIPMENT TYPE,RETAILER ID,
878.0,Anindita,313 seshas bhanu residency 2 4th main 6th cross BTM 2nd stage NS Palya,9945192202,D00100000021100,Collect,retailer1,
