STORE ID,NXT Warehouse
ASSIGNEE NAME,BTM Pod
ASSIGNEE CONTACT NO,
RUNSHEET NUMBER,AIFO0F42I8

COD,CUSTOMER NAME,CUSTOMER ADDRESS,CONTACT NO,TRACKING ID,SHIPMENT TYPE,RETAILER ID,
147.0,gayathri,mr 30 first floor:first A main SFHS layout: BTM 2nd stage: behind canara bank apartments,9535511047,D00100000013590,Collect,retailer1,
