STORE ID,NXT Warehouse
ASSIGNEE NAME,BTM Pod
ASSIGNEE CONTACT NO,
RUNSHEET NUMBER,8IFB2K14R9

COD,CUSTOMER NAME,CUSTOMER ADDRESS,CONTACT NO,TRACKING ID,SHIPMENT TYPE,RETAILER ID,
0.0,Preeti,Room No. 107:41:Perfect Ladies P.G. 7th Cross: 1st Main: BTM Layout 2nd Stage,7899848585,D00100000015024,Collect,retailer1,
0.0,Preeti,Room No. 107:41:Perfect Ladies P.G. 7th Cross: 1st Main: BTM Layout 2nd Stage,7899848585,D00100000015025,Collect,retailer1,
