STORE ID,NXT Warehouse
ASSIGNEE NAME,BTM Pod
ASSIGNEE CONTACT NO,
RUNSHEET NUMBER,I8MI855FRN

COD,CUSTOMER NAME,CUSTOMER ADDRESS,CONTACT NO,TRACKING ID,SHIPMENT TYPE,RETAILER ID,
0.0,Shakun,16th main 12 cross manjunatha appt 1st floor House no.3 btm 2nd stage . Opp mico layout police stati,8095691149,D00100000015738,Collect,retailer1,
0.0,Mrunalini,1461 Ladies Narsimha PG 4th Cross 19th Main BTM LAYOUT 2nd Stage,7829874554,D00100000015741,Collect,retailer1,
