STORE ID,NXT Warehouse
ASSIGNEE NAME,BTM Pod
ASSIGNEE CONTACT NO,
RUNSHEET NUMBER,14EKAK6MRO

COD,CUSTOMER NAME,CUSTOMER ADDRESS,CONTACT NO,TRACKING ID,SHIPMENT TYPE,RETAILER ID,
0.0,Ramya,No.27:Spandana:29th main lake road:4th cross:BTM Layout 2nd stage:BTM Layout,9008033411,D001015227,Collect,retailer1,
