STORE ID,NXT Warehouse
ASSIGNEE NAME,BTM Pod
ASSIGNEE CONTACT NO,
RUNSHEET NUMBER,BO59AEDNB0

COD,CUSTOMER NAME,CUSTOMER ADDRESS,CONTACT NO,TRACKING ID,SHIPMENT TYPE,RETAILER ID,
0.0,Surabhi,389:23rd main:btm 2nd stage:ground floor,8123581508,D00100000008770,Collect,retailer1,
0.0,Juhi,201 Crown Residence:7 th main 12 cross Btm 2nd Stage:560076 Bangalore,8197282025,D00100000008794,Collect,retailer1,
