STORE ID,NXT Warehouse
ASSIGNEE NAME,BTM Pod
ASSIGNEE CONTACT NO,
RUNSHEET NUMBER,5A6D7BOFFL

COD,CUSTOMER NAME,CUSTOMER ADDRESS,CONTACT NO,TRACKING ID,SHIPMENT TYPE,RETAILER ID,
1009.0,Surbhi,Ground Floor:House No695::29th Main:Lake Road:Btm 2nd Stage,9916667460,D00100000020245,Collect,retailer1,
1260.0,Ruchika,1287:14 th main 7 cross btm layout second stage,7406537271,D00100000020251,Collect,retailer1,
1252.0,Ayesha,no 34 indira akash apts flat no 20121st main 3D cross btm 2nd stage,9448086362,D00100000020267,Collect,retailer1,
