STORE ID,NXT Warehouse
ASSIGNEE NAME,Classic boutique
ASSIGNEE CONTACT NO,
RUNSHEET NUMBER,666O5I5DRI

COD,CUSTOMER NAME,CUSTOMER ADDRESS,CONTACT NO,TRACKING ID,SHIPMENT TYPE,RETAILER ID,
0.0,prajnya,Door No -401:MARUTHI Residency:17th H Cross:Rose garden Road Door No -401: MARUTHI Resi JP nagar 5th,9916903138,D00100000009992,Collect,retailer1,
0.0,prajnya,Door No -401:MARUTHI Residency:17th H Cross:Rose garden Road Door No -401: MARUTHI Resi JP nagar 5th,9916903138,D00100000009993,Collect,retailer1,
