STORE ID,NXT Warehouse
ASSIGNEE NAME,Classic boutique
ASSIGNEE CONTACT NO,
RUNSHEET NUMBER,615121660K

COD,CUSTOMER NAME,CUSTOMER ADDRESS,CONTACT NO,TRACKING ID,SHIPMENT TYPE,RETAILER ID,
0.0,Manasi,140 7:18th Main:19th cross:Narashimhaih garden:JP Nagar 5th phase:near Canera Bank,8861205819,D00100000015940,Collect,retailer1,
