STORE ID,NXT Warehouse
ASSIGNEE NAME,Fabwell
ASSIGNEE CONTACT NO,
RUNSHEET NUMBER,BI91D54D95

COD,CUSTOMER NAME,CUSTOMER ADDRESS,CONTACT NO,TRACKING ID,SHIPMENT TYPE,RETAILER ID,
687.0,Vandana,Flat - 302:kuterr bliss nobo nagar near bannergatta road: bangalore,9611752628,D00100000022872,Collect,retailer1,
0.0,Anu Priya,BG03: Sreenidhi Enclave: Doddakammanahalli Main Road: Nobo Nagar Canara bank ATM and Branch:Bangalore Karnataka,9880098582,D00200000006369,Collect,retailer1,
