STORE ID,NXT Warehouse
ASSIGNEE NAME,Fabwell
ASSIGNEE CONTACT NO,
RUNSHEET NUMBER,55ODBD56OK

COD,CUSTOMER NAME,CUSTOMER ADDRESS,CONTACT NO,TRACKING ID,SHIPMENT TYPE,RETAILER ID,
338.0,Minu,Flat B-205:Aspenwoods apartments:doddakamanahalli main road off bannerghatta road:Near nandi deep,9741643305,D001000509,Collect,retailer1,
0.0,C,B 310:subhodaya laurels:tejaswini nagar phase 1:doddakamanahalli:off banerghatta road,7411675042,D001015490,Collect,retailer1,
