STORE ID,NXT Warehouse
ASSIGNEE NAME,HAIR SPEAK SALOON
ASSIGNEE CONTACT NO,
RUNSHEET NUMBER,644KAD4G48

COD,CUSTOMER NAME,CUSTOMER ADDRESS,CONTACT NO,TRACKING ID,SHIPMENT TYPE,RETAILER ID,
1250.0,Pavithra,140:2nd main:ksrtc layout:JP nagar 6th block,9845454746,D00100000021466,Collect,retailer1,
