STORE ID,NXT Warehouse
ASSIGNEE NAME,HAIR SPEAK SALOON
ASSIGNEE CONTACT NO,
RUNSHEET NUMBER,XDM7RKE54G

COD,CUSTOMER NAME,CUSTOMER ADDRESS,CONTACT NO,TRACKING ID,SHIPMENT TYPE,RETAILER ID,
438.0,Lakshmi,Svs pristina:flat no 303:A R layout:24 th main:J.p nagar 6th phase.bangalore 78,9035860734,D00100000014223,Collect,retailer1,
