STORE ID,NXT Warehouse
ASSIGNEE NAME,HAIR SPEAK SALOON
ASSIGNEE CONTACT NO,
RUNSHEET NUMBER,X09NKNXF48

COD,CUSTOMER NAME,CUSTOMER ADDRESS,CONTACT NO,TRACKING ID,SHIPMENT TYPE,RETAILER ID,
434.0,Kamalashree,T8:Sai Madura Elegance 24th main road:JP nagar 6th phase,8050996093,D00100000021340,Collect,retailer1,
534.0,Pavithra,140:2nd main:ksrtc layout:JP nagar 6th block,9845454746,D00100000021359,Collect,retailer1,
