STORE ID,NXT Warehouse
ASSIGNEE NAME,HAIR SPEAK SALOON
ASSIGNEE CONTACT NO,
RUNSHEET NUMBER,505NX420BF

COD,CUSTOMER NAME,CUSTOMER ADDRESS,CONTACT NO,TRACKING ID,SHIPMENT TYPE,RETAILER ID,
455.0,Madhuri,House no.3:building 117:30th main:17th cross:JP nagar 6th phase,8095469110,D00100000020587,Collect,retailer1,
