STORE ID,NXT Warehouse
ASSIGNEE NAME,Lakshmi Medicals
ASSIGNEE CONTACT NO,
RUNSHEET NUMBER,G786E5O472

COD,CUSTOMER NAME,CUSTOMER ADDRESS,CONTACT NO,TRACKING ID,SHIPMENT TYPE,RETAILER ID,
0.0,JOHNSI,9:2ND CROSS:VENKATADRI LAYOUT BEHIND APOLLO HOSPITAL:IIMB POST:BANNERGHATTA ROAD,9886103891,D001015389,Collect,retailer1,
