STORE ID,NXT Warehouse
ASSIGNEE NAME,Lakshmi Medicals
ASSIGNEE CONTACT NO,
RUNSHEET NUMBER,1BDD7N7205

COD,CUSTOMER NAME,CUSTOMER ADDRESS,CONTACT NO,TRACKING ID,SHIPMENT TYPE,RETAILER ID,
0.0,Harish R,First floor: 62: 2nd Cross: Sahyadhri Layout: Panduranga Nagar:  Bannerghatta Road: Behind Appollo Hospital:Bangalore Karnataka,9986333548,D00200000006075,Collect,retailer1,
