STORE ID,NXT Warehouse
ASSIGNEE NAME,Libaas Fashions
ASSIGNEE CONTACT NO,
RUNSHEET NUMBER,0XEI52FEID

COD,CUSTOMER NAME,CUSTOMER ADDRESS,CONTACT NO,TRACKING ID,SHIPMENT TYPE,RETAILER ID,
0.0,Nabanita Mondal,SNS PG For Ladies::No85/4 & 85/5: Near Narayana PU College::Green Glen Layout: Bellandur ICICI Bank: Near Narayana PU College:Bangalore Karnataka,9038071686,D00200000006209,Collect,retailer1,
