STORE ID,NXT Warehouse
ASSIGNEE NAME,Libaas Fashions
ASSIGNEE CONTACT NO,
RUNSHEET NUMBER,4DAM09X7A1

COD,CUSTOMER NAME,CUSTOMER ADDRESS,CONTACT NO,TRACKING ID,SHIPMENT TYPE,RETAILER ID,
1076.0,Aarushi,Flat no.102 omkar residency Green Glen Layout:bellandur,9999663141,D00100000020246,Collect,retailer1,
