STORE ID,NXT Warehouse
ASSIGNEE NAME,Libaas Fashions
ASSIGNEE CONTACT NO,
RUNSHEET NUMBER,X8R2RD5MBD

COD,CUSTOMER NAME,CUSTOMER ADDRESS,CONTACT NO,TRACKING ID,SHIPMENT TYPE,RETAILER ID,
0.0,UMASRIRAM,G1 153 SOBHA LAVENDER:BELANDUR VILLAGE SARJAPUR OUTER RING ROAD,9845124845,D00100000009608,Collect,retailer1,
995.0,meena,flat no307:dsr:crescent appt:green glen layout bellandur:bangalore-103,9035469662,D00100000020155,Collect,retailer1,
