STORE ID,NXT Warehouse
ASSIGNEE NAME,Libaas Fashions
ASSIGNEE CONTACT NO,
RUNSHEET NUMBER,L2MOMFI0XR

COD,CUSTOMER NAME,CUSTOMER ADDRESS,CONTACT NO,TRACKING ID,SHIPMENT TYPE,RETAILER ID,
0.0,Sharmin,302 Ushoodaya Trinity:Green Glen Layout Bellandur: In Bakasur Restaurant Lane,8197126633,D001015252,Collect,retailer1,
0.0,pratiti,205:srinivas enclave:margosa avenue:green glen layout:bellandur,7411097292,D001015303,Collect,retailer1,
