STORE ID,NXT Warehouse
ASSIGNEE NAME,P M Fresh Market
ASSIGNEE CONTACT NO,
RUNSHEET NUMBER,8L56829K56

COD,CUSTOMER NAME,CUSTOMER ADDRESS,CONTACT NO,TRACKING ID,SHIPMENT TYPE,RETAILER ID,
1387.0,Krishi,SLS Springs:A block:G4:Royal placid:Harlur:Hsr extension landmarkvibgyor international school,9008734782,D00100000013821,Collect,retailer1,
