STORE ID,NXT Warehouse
ASSIGNEE NAME,P M Fresh Market
ASSIGNEE CONTACT NO,
RUNSHEET NUMBER,X5MI9LDIK5

COD,CUSTOMER NAME,CUSTOMER ADDRESS,CONTACT NO,TRACKING ID,SHIPMENT TYPE,RETAILER ID,
1668.0,Binita,Drongo 1303:SJR WATERMARK:Shubh Enclave::Harlur road:off Sarjapur road,9663107012,D00100000020176,Collect,retailer1,
