STORE ID,NXT Warehouse
ASSIGNEE NAME,P M Fresh Market
ASSIGNEE CONTACT NO,
RUNSHEET NUMBER,X9AM17FF2F

COD,CUSTOMER NAME,CUSTOMER ADDRESS,CONTACT NO,TRACKING ID,SHIPMENT TYPE,RETAILER ID,
5.0,Anshuman,E107:Ozone Evergreen:Harlur Road,9742379357,D00100000014010,Collect,retailer1,
