STORE ID,NXT Warehouse
ASSIGNEE NAME,Party Zone
ASSIGNEE CONTACT NO,
RUNSHEET NUMBER,B5M2OMK651

COD,CUSTOMER NAME,CUSTOMER ADDRESS,CONTACT NO,TRACKING ID,SHIPMENT TYPE,RETAILER ID,
0.0,Deepti,Redstone Learning Inc.:No.4:15th cross 4th Sector: HSR Layout,8050010903,D00100000016870,Collect,retailer1,
1669.0,Rashmi,205 harihara enclave 1st main 15th cross sector 6 HSR Layout,9742727373,D00100000022656,Collect,retailer1,
