STORE ID,NXT Warehouse
ASSIGNEE NAME,Party Zone
ASSIGNEE CONTACT NO,
RUNSHEET NUMBER,107OEIEI7G

COD,CUSTOMER NAME,CUSTOMER ADDRESS,CONTACT NO,TRACKING ID,SHIPMENT TYPE,RETAILER ID,
2048.0,Usha,334. 17 th main 14th crossSector 4. Hsr layout,9972205572,D00100000013654,Collect,retailer1,
