STORE ID,NXT Warehouse
ASSIGNEE NAME,Party Zone
ASSIGNEE CONTACT NO,
RUNSHEET NUMBER,27E155D142

COD,CUSTOMER NAME,CUSTOMER ADDRESS,CONTACT NO,TRACKING ID,SHIPMENT TYPE,RETAILER ID,
0.0,Ankita,House No 915:2nd floor:24th C Cross15th Main:Sector 3:HSR Layout,9535988560,D00100000009797,Collect,retailer1,
