STORE ID,NXT Warehouse
ASSIGNEE NAME,Party Zone
ASSIGNEE CONTACT NO,
RUNSHEET NUMBER,KABL1NI6MI

COD,CUSTOMER NAME,CUSTOMER ADDRESS,CONTACT NO,TRACKING ID,SHIPMENT TYPE,RETAILER ID,
4000.0,subhashini,27:18th cs:9yh mn:sec7:hsr layout,9880650266,D00100000021921,Collect,retailer1,
