STORE ID,NXT Warehouse
ASSIGNEE NAME,Party Zone
ASSIGNEE CONTACT NO,
RUNSHEET NUMBER,MOK6LE55EO

COD,CUSTOMER NAME,CUSTOMER ADDRESS,CONTACT NO,TRACKING ID,SHIPMENT TYPE,RETAILER ID,
835.0,Meghana,16 Main 15 Cross Sector 4 Hsr Layout 520,9880205454,D001000529,Collect,retailer1,
338.0,Pratiksha,W6 GR:Fernhill Gardens Apartment Sector 6:HSR Layout,9980320586,D001000539,Collect,retailer1,
