STORE ID,NXT Warehouse
ASSIGNEE NAME,Rehoboth Mens & Ladies wear
ASSIGNEE CONTACT NO,
RUNSHEET NUMBER,OBIEI8KI69

COD,CUSTOMER NAME,CUSTOMER ADDRESS,CONTACT NO,TRACKING ID,SHIPMENT TYPE,RETAILER ID,
0.0,Pallavi,102:First floor:Reliable Woods:Harlur road:Kudlu Kudlu:Kudlu Kudlu Kudlu Kudlu,9686422099,D00100000009599,Collect,retailer1,
