STORE ID,NXT Warehouse
ASSIGNEE NAME,SAMENS APPARELS
ASSIGNEE CONTACT NO,
RUNSHEET NUMBER,0FBR5LE4OO

COD,CUSTOMER NAME,CUSTOMER ADDRESS,CONTACT NO,TRACKING ID,SHIPMENT TYPE,RETAILER ID,
0.0,Ruchika,183:DSR Rainbow Heights:HSR Layout Sector 2,9886810721,D001015068,Collect,retailer1,
