STORE ID,NXT Warehouse
ASSIGNEE NAME,SAMENS APPARELS
ASSIGNEE CONTACT NO,
RUNSHEET NUMBER,O5MFEMADB4

COD,CUSTOMER NAME,CUSTOMER ADDRESS,CONTACT NO,TRACKING ID,SHIPMENT TYPE,RETAILER ID,
637.0,Akshatha,ND Sepal E104 SOMASUNDARA Palya HSR Layout 2nd Sector,9620089455,D00100000021682,Collect,retailer1,
