STORE ID,NXT Warehouse
ASSIGNEE NAME,SAMENS APPARELS
ASSIGNEE CONTACT NO,
RUNSHEET NUMBER,5E88516K9R

COD,CUSTOMER NAME,CUSTOMER ADDRESS,CONTACT NO,TRACKING ID,SHIPMENT TYPE,RETAILER ID,
0.0,Ekta,Flat No. F-202:Nagarjuna Greenridge Apts:19th Main:27th Cross:Sector-2 HSR Layout,9742066617,D00100000017062,Collect,retailer1,
1220.0,Devi,106:Sri Sai Mansion:Hosapalya Main Road:HSR sector -2:Near Ujala Factory near Unitech Pearl Apartmen,9901422491,D00100000022787,Collect,retailer1,
