STORE ID,NXT Warehouse
ASSIGNEE NAME,SOS Salon Spa
ASSIGNEE CONTACT NO,
RUNSHEET NUMBER,K5AL6EA47R

COD,CUSTOMER NAME,CUSTOMER ADDRESS,CONTACT NO,TRACKING ID,SHIPMENT TYPE,RETAILER ID,
0.0,Reema,Flat 102:Magnolia Maks Blossom:11th Cross:8 A Main:Anantha Nagar Phase I:near Huskur Gate::Ele,8904030010,D00100000016766,Collect,retailer1,
