STORE ID,NXT Warehouse
ASSIGNEE NAME,SOS Salon Spa
ASSIGNEE CONTACT NO,
RUNSHEET NUMBER,M18NGG7A9B

COD,CUSTOMER NAME,CUSTOMER ADDRESS,CONTACT NO,TRACKING ID,SHIPMENT TYPE,RETAILER ID,
492.0,Rabia,005:Maks magnolia apartment:11th cross:8a main:Sree ananthnagar society:Huskur gate,7829909820,D00100000022697,Collect,retailer1,
