STORE ID,NXT Warehouse
ASSIGNEE NAME,SOS Salon Spa
ASSIGNEE CONTACT NO,
RUNSHEET NUMBER,2EAN22O6EM

COD,CUSTOMER NAME,CUSTOMER ADDRESS,CONTACT NO,TRACKING ID,SHIPMENT TYPE,RETAILER ID,
995.0,Priya,Flat Num BF-22:Block B:ITTINA NEELA APARTMENTS ANDAPURA VILLAGE: HUSKUR GATE: ELECTRONIC CITY PHASE,7760998444,D001000070,Collect,retailer1,
