STORE ID,NXT Warehouse
ASSIGNEE NAME,SOS Salon Spa
ASSIGNEE CONTACT NO,
RUNSHEET NUMBER,GLIBMNGA51

COD,CUSTOMER NAME,CUSTOMER ADDRESS,CONTACT NO,TRACKING ID,SHIPMENT TYPE,RETAILER ID,
0.0,Jennifer,G 401 Pride Pristine Apt:Ananth Nagar Ph 3:Vasundhara Layout:Electronic City Post,8105500899,D001015489,Collect,retailer1,
