STORE ID,NXT Warehouse
ASSIGNEE NAME,SRI SAI ENTERPRISES
ASSIGNEE CONTACT NO,
RUNSHEET NUMBER,K80MNAXB21

COD,CUSTOMER NAME,CUSTOMER ADDRESS,CONTACT NO,TRACKING ID,SHIPMENT TYPE,RETAILER ID,
627.0,Sharmista,G krishna reddi residency:Flat no F4:1st floor 5th main BOB colony puttenahalli:jp nagar 7th ph,9448193001,D00100000021968,Collect,retailer1,
599.0,Sharmista,G krishna reddi residency:Flat no F4:1st floor 5th main BOB colony puttenahalli:jp nagar 7th phase,9448193001,D00100000021969,Collect,retailer1,
