STORE ID,NXT Warehouse
ASSIGNEE NAME,SRI SAI ENTERPRISES
ASSIGNEE CONTACT NO,
RUNSHEET NUMBER,7M7865405R

COD,CUSTOMER NAME,CUSTOMER ADDRESS,CONTACT NO,TRACKING ID,SHIPMENT TYPE,RETAILER ID,
1621.0,Rashmi,A 904:Brigade Palmsprings:JP Nagar 7th Phase 24th Main road,9972520257,D00100000020792,Collect,retailer1,
