STORE ID,NXT Warehouse
ASSIGNEE NAME,Sunday Salon
ASSIGNEE CONTACT NO,
RUNSHEET NUMBER,R12552GGN4

COD,CUSTOMER NAME,CUSTOMER ADDRESS,CONTACT NO,TRACKING ID,SHIPMENT TYPE,RETAILER ID,
409.0,Radha,c2-311:SJR Luxuria Arekere MICO layout,9972570301,D001000456,Collect,retailer1,
