STORE ID,NXT Warehouse
ASSIGNEE NAME,Sunday Salon
ASSIGNEE CONTACT NO,
RUNSHEET NUMBER,X61458M5BD

COD,CUSTOMER NAME,CUSTOMER ADDRESS,CONTACT NO,TRACKING ID,SHIPMENT TYPE,RETAILER ID,
0.0,Divya,L and T South City:C 1 Block:Flat 1701 Landmark Near Reliance Mart: Arekere Mico Layout: Banerghatta,9686922334,D00100000016954,Collect,retailer1,
