STORE ID,NXT Warehouse
ASSIGNEE NAME,Sunday Salon
ASSIGNEE CONTACT NO,
RUNSHEET NUMBER,G86A9BEE54

COD,CUSTOMER NAME,CUSTOMER ADDRESS,CONTACT NO,TRACKING ID,SHIPMENT TYPE,RETAILER ID,
0.0,Anupama,007:1st Floor:Silhouette Enclave Arekere Micolayout Opp to L&T Southcity,9886723135,D00100000008890,Collect,retailer1,
