STORE ID,NXT Warehouse
ASSIGNEE NAME,Swathi Sri Boutique
ASSIGNEE CONTACT NO,
RUNSHEET NUMBER,0R0BLM1KAN

COD,CUSTOMER NAME,CUSTOMER ADDRESS,CONTACT NO,TRACKING ID,SHIPMENT TYPE,RETAILER ID,
50.0,GeethaBalakrishna,2095:swagatham:I St Cross:4th Main road:Royal county:jambusavari Dinne:j.p nagar 8th phase:,9880812526,D001000094,Collect,retailer1,
0.0,Monika,26:2nd cross RBI Goutham layout 7th phase jp.nagar bangalore,9686588508,D001015091,Collect,retailer1,
