STORE ID,NXT Warehouse
ASSIGNEE NAME,Swathi Sri Boutique
ASSIGNEE CONTACT NO,
RUNSHEET NUMBER,MMNNL2F7R8

COD,CUSTOMER NAME,CUSTOMER ADDRESS,CONTACT NO,TRACKING ID,SHIPMENT TYPE,RETAILER ID,
0.0,Lisha,17:4th cross venkateshwara layout:B.k Circle:J.P Nagar 8th Phase,8197966026,D00100000015273,Collect,retailer1,
