STORE ID,NXT Warehouse
ASSIGNEE NAME,Swathi Sri Boutique
ASSIGNEE CONTACT NO,
RUNSHEET NUMBER,BX55LIG5OF

COD,CUSTOMER NAME,CUSTOMER ADDRESS,CONTACT NO,TRACKING ID,SHIPMENT TYPE,RETAILER ID,
0.0,shobha,house no. 72:3rd main:4th cross:shreyas colony:j p nagar 7th phase,9663689127,D00100000015063,Collect,retailer1,
