STORE ID,NXT Warehouse
ASSIGNEE NAME,Swathi Sri Boutique
ASSIGNEE CONTACT NO,
RUNSHEET NUMBER,8KR5R4FO41

COD,CUSTOMER NAME,CUSTOMER ADDRESS,CONTACT NO,TRACKING ID,SHIPMENT TYPE,RETAILER ID,
434.0,saman,26 pearl house ground floor near green mart Navodaya nagar:7th phase j.p nagar,9739031600,D00100000020922,Collect,retailer1,
