STORE ID,NXT Warehouse
ASSIGNEE NAME,Swathi Sri Boutique
ASSIGNEE CONTACT NO,
RUNSHEET NUMBER,NXFGO5M78K

COD,CUSTOMER NAME,CUSTOMER ADDRESS,CONTACT NO,TRACKING ID,SHIPMENT TYPE,RETAILER ID,
995.0,chandrika,7th main. m.s.ramaiah city:j.p.nagar 7th phase,9740027072,D00100000020536,Collect,retailer1,
