STORE ID,NXT Warehouse
ASSIGNEE NAME,Tavarekere
ASSIGNEE CONTACT NO,
RUNSHEET NUMBER,E6718G0I4A

COD,CUSTOMER NAME,CUSTOMER ADDRESS,CONTACT NO,TRACKING ID,SHIPMENT TYPE,RETAILER ID,
1990.0,Meenakshi,Creative International Pvt Ltd 7 Krishnanagar off hosur main road near Thavarikere single Opp panjab,9916448006,D00100000020644,Collect,retailer1,
382.0,thejas,No 605 kms homes chocolate factory road cashier layout:tavarekere,9986559292,D00100000020672,Collect,retailer1,
