STORE ID,NXT Warehouse
ASSIGNEE NAME,Tavarekere
ASSIGNEE CONTACT NO,
RUNSHEET NUMBER,XDE051FNM7

COD,CUSTOMER NAME,CUSTOMER ADDRESS,CONTACT NO,TRACKING ID,SHIPMENT TYPE,RETAILER ID,
719.0,Aasavari,Serenity Girls Hostel:62-63:2nd Cross C.L layout:near Christ University:D.R college post,7760484253,D00100000014352,Collect,retailer1,
534.0,harini,flat no 204:devlok apartments:2nd cross:beside icici bank atm tavarekere main road,9739406962,D00100000020173,Collect,retailer1,
