STORE ID,NXT Warehouse
ASSIGNEE NAME,Tavarekere
ASSIGNEE CONTACT NO,
RUNSHEET NUMBER,0RGD4OEXI1

COD,CUSTOMER NAME,CUSTOMER ADDRESS,CONTACT NO,TRACKING ID,SHIPMENT TYPE,RETAILER ID,
0.0,Amrita,204:Crystal Rock Apartments:3rd Cross:Chikku Lakshmiah Layout Oppiste Dominoes. Near Christ Universi,9916167784,D00100000015855,Collect,retailer1,
1360.0,Geeta,ORACLE INDIA PVT.LTD PRESTIGE BLUE CHIPS 9:HOSUR MAIN ROAD.OPP.CHRIST COLLEGE,8088130552,D00100000021451,Collect,retailer1,
588.0,Madhura,Sri Balaji PG:2nd cross:SG Palya main road Venkateshwara layout,8867759001,D00100000021452,Collect,retailer1,
