STORE ID,NXT Warehouse
ASSIGNEE NAME,Utsav fashion
ASSIGNEE CONTACT NO,
RUNSHEET NUMBER,XKX24E62AR

COD,CUSTOMER NAME,CUSTOMER ADDRESS,CONTACT NO,TRACKING ID,SHIPMENT TYPE,RETAILER ID,
67.0,pratima,120:3rd block:janapriya Lakeview appt phase 1c:kodichikkanhalli,7022709495,D001000303,Collect,retailer1,
