STORE ID,NXT Warehouse
ASSIGNEE NAME,Utsav fashion
ASSIGNEE CONTACT NO,
RUNSHEET NUMBER,B5F6NLOFO6

COD,CUSTOMER NAME,CUSTOMER ADDRESS,CONTACT NO,TRACKING ID,SHIPMENT TYPE,RETAILER ID,
0.0,Roopal,101:pristine paradise apartment:anugraha layout near presidency school:bilekhalli,9686349208,D00100000009776,Collect,retailer1,
