STORE ID,NXT Warehouse
ASSIGNEE NAME,Zain Foot Palace
ASSIGNEE CONTACT NO,
RUNSHEET NUMBER,7B7E89B5X9

COD,CUSTOMER NAME,CUSTOMER ADDRESS,CONTACT NO,TRACKING ID,SHIPMENT TYPE,RETAILER ID,
0.0,priya,no.13 2nd fllor 1st cross main road gandhipuram whitefield,9611733078,D00100000017094,Collect,retailer1,
